Uma Jornada pelos TidyModels em R - Classificação
…
Age_poly_2
8.663066e+13
2.4744368
12.969689
0
6.900043e+11
1.128418e+16

A função predict() calcula os valores preditos para o conjunto especificado:

logreg_fit %>% predict(diabetes_train)

## # A tibble: 12,000 × 1
##    .pred_class
##    <fct>      
##  1 0          
##  2 0          
##  3 0          
##  4 0          
##  5 0          
##  6 0          
##  7 0          
##  8 0          
##  9 0          
## 10 0          
## # ℹ 11,990 more rows

A predição com tidymodels garante que:

as predições estarão sempre dentro de um dataframe/tibble;

os nomes e tipos das colunas são previsíveis e intuitivas;

o número de linhas em new_data e a saída são iguais.

Pode-se usar também a função augment(), que calcula os valores preditos, adicionando-os em uma coluna no conjunto de dados especificado:

logreg_fit %>% augment(diabetes_train)

## # A tibble: 12,000 × 12
##    .pred_class .pred_1 .pred_0 Pregnancies PlasmaGlucose DiastolicBloodPressure
##    <fct>         <dbl>   <dbl>       <dbl>         <dbl>                  <dbl>
##  1 0            0.289    0.711           0           171                     80
##  2 0            0.420    0.580           7           115                     47
##  3 0            0.0490   0.951           0            82                     92
##  4 0            0.0350   0.965           0           133                     47
##  5 0            0.0730   0.927           1            88                     86
##  6 0            0.0806   0.919           3            94                     96
##  7 0            0.351    0.649           7           110                     82
##  8 0            0.372    0.628           0           148                     58
##  9 0            0.146    0.854           0            92                     84
## 10 0            0.164    0.836           0           118                     95
## # ℹ 11,990 more rows
## # ℹ 6 more variables: TricepsThickness <dbl>, SerumInsulin <dbl>, BMI <dbl>,
## #   DiabetesPedigree <dbl>, Age <dbl>, Diabetic <fct>
…
A métrica obtida no conjunto de validação pode ser tomada como uma estimativa da métrica no conjunto de teste.

Caso seja necessário salvar as predições obtidas nas etapas de validação cruzada, para fazer um gráfico, por exemplo, usamos control_resamples:

ctrl_malaria <- control_resamples(save_pred = TRUE)

logreg_cv <- fit_resamples(logreg_wf, 
               diabetes_folds, 
               control = ctrl_malaria)

logreg_preds <- collect_predictions(logreg_cv)
logreg_preds

## # A tibble: 12,000 × 7
##    .pred_class .pred_1 .pred_0 id     .row Diabetic .config             
##    <fct>         <dbl>   <dbl> <chr> <int> <fct>    <chr>               
##  1 0            0.0735   0.927 Fold1     5 0        Preprocessor1_Model1
##  2 0            0.305    0.695 Fold1    20 0        Preprocessor1_Model1
##  3 0            0.109    0.891 Fold1    24 0        Preprocessor1_Model1
##  4 0            0.362    0.638 Fold1    37 0        Preprocessor1_Model1
##  5 0            0.0716   0.928 Fold1    41 0        Preprocessor1_Model1
##  6 0            0.148    0.852 Fold1    44 0        Preprocessor1_Model1
##  7 0            0.0791   0.921 Fold1    47 0        Preprocessor1_Model1
##  8 0            0.360    0.640 Fold1    49 0        Preprocessor1_Model1
##  9 0            0.0798   0.920 Fold1    50 0        Preprocessor1_Model1
## 10 0            0.280    0.720 Fold1    67 0        Preprocessor1_Model1
## # ℹ 11,990 more rows
…
Para avaliar o desempenho de múltiplos valores do hiperparâmetro usando validação cruzada:

set.seed(2024)
logreglasso_res <-
  tune_grid(logreglasso_wf, 
            resamples = diabetes_folds, 
            grid = 20,
            metrics = diabetes_metrics)

Métricas resultantes da validação cruzada considerando os valores do grid:

logreglasso_res %>% collect_metrics()

## # A tibble: 60 × 7
##     penalty .metric     .estimator  mean     n std_err .config              
##       <dbl> <chr>       <chr>      <dbl> <int>   <dbl> <chr>                
##  1 2.77e-10 accuracy    binary     0.789     5 0.00107 Preprocessor1_Model01
##  2 2.77e-10 sensitivity binary     0.6       5 0.00597 Preprocessor1_Model01
##  3 2.77e-10 specificity binary     0.883     5 0.00189 Preprocessor1_Model01
##  4 3.45e-10 accuracy    binary     0.789     5 0.00107 Preprocessor1_Model02
##  5 3.45e-10 sensitivity binary     0.6       5 0.00597 Preprocessor1_Model02
##  6 3.45e-10 specificity binary     0.883     5 0.00189 Preprocessor1_Model02
##  7 1.17e- 9 accuracy    binary     0.789     5 0.00107 Preprocessor1_Model03
##  8 1.17e- 9 sensitivity binary     0.6       5 0.00597 Preprocessor1_Model03
##  9 1.17e- 9 specificity binary     0.883     5 0.00189 Preprocessor1_Model03
## 10 5.42e- 9 accuracy    binary     0.789     5 0.00107 Preprocessor1_Model04
## # ℹ 50 more rows
…
Vamos usar tune_grid() para avaliar múltiplos valores para o hiperparâmetro:

tree_res <-
  tune_grid(tree_wf, 
            resamples = diabetes_folds, 
            grid = 30,
            metrics = diabetes_metrics)

É possível fornecer um data.frame na opção grid, para ser mais específico.

Métricas obtidas por meio de validação cruzada considerando os valores da grade:

tree_res %>% collect_metrics()

## # A tibble: 90 × 7
##    cost_complexity .metric     .estimator  mean     n std_err .config           
##              <dbl> <chr>       <chr>      <dbl> <int>   <dbl> <chr>             
##  1        1.24e- 9 accuracy    binary     0.913     5 0.00159 Preprocessor1_Mod…
##  2        1.24e- 9 sensitivity binary     0.869     5 0.00393 Preprocessor1_Mod…
##  3        1.24e- 9 specificity binary     0.935     5 0.00306 Preprocessor1_Mod…
##  4        1.40e-10 accuracy    binary     0.913     5 0.00159 Preprocessor1_Mod…
##  5        1.40e-10 sensitivity binary     0.869     5 0.00393 Preprocessor1_Mod…
##  6        1.40e-10 specificity binary     0.935     5 0.00306 Preprocessor1_Mod…
##  7        2.22e- 4 accuracy    binary     0.914     5 0.00143 Preprocessor1_Mod…
##  8        2.22e- 4 sensitivity binary     0.874     5 0.00435 Preprocessor1_Mod…
##  9        2.22e- 4 specificity binary     0.935     5 0.00344 Preprocessor1_Mod…
## 10        5.45e- 9 accuracy    binary     0.913     5 0.00159 Preprocessor1_Mod…
## # ℹ 80 more rows
…
Vamos usar tune_grid() para avaliar o desempenho de múltiplos valores do hiperparâmetro usando validação cruzada:

set.seed(2024)
rf_res <-
  tune_grid(rf_wf, 
            resamples = diabetes_folds, 
            grid = 15,
            metrics = diabetes_metrics)

Métricas resultantes da validação cruzada considerando os valores no grid:

rf_res %>% collect_metrics()

## # A tibble: 24 × 7
##     mtry .metric     .estimator  mean     n std_err .config             
##    <int> <chr>       <chr>      <dbl> <int>   <dbl> <chr>               
##  1     8 accuracy    binary     0.933     5 0.00207 Preprocessor1_Model1
##  2     8 sensitivity binary     0.894     5 0.00390 Preprocessor1_Model1
##  3     8 specificity binary     0.953     5 0.00432 Preprocessor1_Model1
##  4     3 accuracy    binary     0.938     5 0.00247 Preprocessor1_Model2
##  5     3 sensitivity binary     0.894     5 0.00258 Preprocessor1_Model2
##  6     3 specificity binary     0.960     5 0.00432 Preprocessor1_Model2
##  7     6 accuracy    binary     0.934     5 0.00262 Preprocessor1_Model3
##  8     6 sensitivity binary     0.892     5 0.00470 Preprocessor1_Model3
##  9     6 specificity binary     0.955     5 0.00437 Preprocessor1_Model3
## 10     7 accuracy    binary     0.934     5 0.00268 Preprocessor1_Model4
## # ℹ 14 more rows
…
Obtenha valores preditos para os dados de teste:

fitted_wf %>% augment(diabetes_test)

## # A tibble: 3,000 × 12
##    .pred_class .pred_1 .pred_0 Pregnancies PlasmaGlucose DiastolicBloodPressure
##    <fct>         <dbl>   <dbl>       <dbl>         <dbl>                  <dbl>
##  1 0            0.324    0.676           8            92                     93
##  2 0            0.107    0.893           1            85                     59
##  3 0            0.0389   0.961           0            67                     87
##  4 0            0.0624   0.938           1            72                     31
##  5 1            0.581    0.419           5           114                    101
##  6 0            0.288    0.712           8           117                     39
##  7 1            0.631    0.369           2            44                     81
##  8 0            0.136    0.864           0           119                     50
##  9 1            0.631    0.369           8           152                     83
## 10 0            0.170    0.830           2           118                     61
## # ℹ 2,990 more rows
## # ℹ 6 more variables: TricepsThickness <dbl>, SerumInsulin <dbl>, BMI <dbl>,
## #   DiabetesPedigree <dbl>, Age <dbl>, Diabetic <fct>
…
set.seed(2024)
wf_tune_res <-  wf_tune_set %>% 
  workflow_map(resamples = diabetes_folds, 
               grid = 40,
               metrics = diabetes_metrics,
               control = control_grid(save_pred = TRUE))

tune_results <- wf_tune_res %>% 
  collect_metrics()
tune_results

## # A tibble: 273 × 9
##    wflow_id  .config        preproc model .metric .estimator  mean     n std_err
##    <chr>     <chr>          <chr>   <chr> <chr>   <chr>      <dbl> <int>   <dbl>
##  1 rec1_tree Preprocessor1… formula deci… accura… binary     0.913     5 0.00148
##  2 rec1_tree Preprocessor1… formula deci… sensit… binary     0.869     5 0.00381
##  3 rec1_tree Preprocessor1… formula deci… specif… binary     0.935     5 0.00276
##  4 rec1_tree Preprocessor1… formula deci… accura… binary     0.913     5 0.00159
##  5 rec1_tree Preprocessor1… formula deci… sensit… binary     0.869     5 0.00393
##  6 rec1_tree Preprocessor1… formula deci… specif… binary     0.935     5 0.00306
##  7 rec1_tree Preprocessor1… formula deci… accura… binary     0.916     5 0.00202
##  8 rec1_tree Preprocessor1… formula deci… sensit… binary     0.857     5 0.00199
##  9 rec1_tree Preprocessor1… formula deci… specif… binary     0.945     5 0.00317
## 10 rec1_tree Preprocessor1… formula deci… accura… binary     0.887     5 0.00205
## # ℹ 263 more rows
…
saveRDS(fitted_wf, "diabetes_rf_modelo.rds")

Valores preditos para o conjunto de teste:

final_wf_fit %>% augment()

## # A tibble: 3,000 × 10
##    .pred_class Pregnancies PlasmaGlucose DiastolicBloodPressure TricepsThickness
##    <fct>             <dbl>         <dbl>                  <dbl>            <dbl>
##  1 0                     8            92                     93               47
##  2 0                     1            85                     59               27
##  3 0                     0            67                     87               43
##  4 0                     1            72                     31               40
##  5 1                     5           114                    101               43
##  6 0                     8           117                     39               32
##  7 1                     2            44                     81               46
##  8 0                     0           119                     50               52
##  9 0                     8           152                     83               42
## 10 1                     2           118                     61               56
## # ℹ 2,990 more rows
## # ℹ 5 more variables: SerumInsulin <dbl>, BMI <dbl>, DiabetesPedigree <dbl>,
## #   Age <dbl>, Diabetic <fct>
…
